<svg width="170" height="31" viewBox="0 0 170 31" fill="none" xmlns="http://www.w3.org/2000/svg">
<path d="M6.30275 30.4867H0.371094V11.1132C0.371094 10.6348 0.41893 10.1565 0.562437 9.67812C0.705945 9.24759 0.992961 8.81707 1.47132 8.48222C1.85401 8.1952 2.18886 8.0517 2.57155 7.95602C2.95423 7.90819 3.33692 7.86035 3.71961 7.86035H11.182C11.4212 7.86035 11.756 7.86035 12.1387 7.90819C12.5214 7.95602 12.9041 8.00386 13.3346 8.14737C13.7652 8.29088 14.1957 8.43438 14.6262 8.67356C15.0567 8.91274 15.4394 9.24759 15.8221 9.63028C16.2048 10.0608 16.5396 10.587 16.7788 11.1132C17.018 11.6394 17.1615 12.2134 17.305 12.7875C17.4007 13.3615 17.4964 13.9355 17.4964 14.4617C17.5442 14.9879 17.5442 15.4663 17.5442 15.8968C17.5442 16.2795 17.5442 16.71 17.4964 17.284C17.4964 17.8581 17.4485 18.4321 17.3528 19.054C17.2572 19.6758 17.1615 20.2977 16.9702 20.9196C16.7788 21.5414 16.5396 22.1155 16.2526 22.546C15.8699 23.12 15.4872 23.5505 15.0089 23.8376C14.5305 24.1724 14.0522 24.3637 13.5738 24.5551C13.0476 24.6986 12.5693 24.7943 12.0909 24.8421C11.6125 24.8899 11.1342 24.8899 10.7037 24.8899H6.30275V30.4867ZM8.93372 20.3934C9.60343 20.3934 10.0818 20.2499 10.4166 19.9628C10.7515 19.6758 10.9907 19.3888 11.1342 19.1018C11.2777 18.7669 11.4212 18.3843 11.4212 17.9059C11.469 17.4754 11.469 16.9492 11.469 16.423C11.469 15.9446 11.469 15.4663 11.4212 15.0836C11.3734 14.6531 11.3255 14.3182 11.182 13.9355C11.0385 13.6007 10.895 13.3136 10.7037 13.1223C10.5123 12.931 10.2731 12.7875 10.0818 12.6918C9.89044 12.5961 9.65126 12.5483 9.45992 12.5004C9.26858 12.5004 9.12507 12.4526 9.0294 12.4526H6.92462C6.87678 12.4526 6.78111 12.5004 6.68544 12.5483C6.58976 12.5961 6.49409 12.6439 6.44626 12.6918C6.30275 12.8353 6.25491 13.0266 6.25491 13.2658V20.3934H8.93372Z" fill="#3F3F3F"/>
<path d="M24.958 7.86035V16.3751C24.958 17.1884 25.0059 17.8102 25.1015 18.2886C25.1972 18.7191 25.3407 19.1018 25.5321 19.341C25.6756 19.5802 25.8669 19.8193 26.1061 19.9628C26.3453 20.1063 26.5366 20.202 26.7758 20.2499C27.015 20.2977 27.2063 20.3455 27.4455 20.3934C27.6847 20.3934 27.876 20.4412 28.0674 20.4412H29.1676C29.646 20.4412 29.9808 20.3455 30.22 20.1063C30.3635 19.915 30.4592 19.7715 30.507 19.5802C30.507 19.3888 30.5548 19.2453 30.5548 19.054V7.86035H36.4865V21.4936C36.4865 21.9719 36.4387 22.4503 36.343 22.9287C36.2473 23.407 35.9603 23.8376 35.5298 24.2202C35.1471 24.6029 34.6687 24.7943 34.1425 24.8899C33.6163 24.9856 33.2337 24.9856 32.8988 24.9856H25.5321C24.384 24.9856 23.4273 24.8421 22.7098 24.5551C22.04 24.2202 21.466 23.8854 21.0833 23.5027C20.2701 22.7852 19.6961 21.8763 19.4569 20.7761C19.2177 19.6758 19.0742 18.4799 19.0742 17.1884V7.86035H24.958Z" fill="#3F3F3F"/>
<path d="M44.1856 7.86035V16.3751C44.1856 17.1884 44.2334 17.8102 44.3291 18.2886C44.4247 18.7191 44.5682 19.1018 44.7596 19.341C44.9031 19.5802 45.0944 19.8193 45.3336 19.9628C45.5728 20.1063 45.7641 20.202 46.0033 20.2499C46.2425 20.2977 46.4338 20.3455 46.673 20.3934C46.9122 20.3934 47.1036 20.4412 47.2949 20.4412H48.3951C48.8735 20.4412 49.2083 20.3455 49.4475 20.1063C49.591 19.915 49.6867 19.7715 49.7345 19.5802C49.7345 19.3888 49.7824 19.2453 49.7824 19.054V7.86035H55.714V21.4936C55.714 21.9719 55.6662 22.4503 55.5227 22.9287C55.427 23.407 55.14 23.8376 54.7095 24.2202C54.3268 24.6029 53.8484 24.7943 53.3222 24.8899C52.796 24.9856 52.4133 24.9856 52.0785 24.9856H44.7596C43.6115 24.9856 42.6548 24.8421 41.9373 24.5551C41.2197 24.2681 40.6457 23.9332 40.263 23.5505C39.4498 22.833 38.8758 21.9241 38.6366 20.8239C38.3496 19.7237 38.2539 18.5278 38.2539 17.2362V7.86035H44.1856Z" fill="#3F3F3F"/>
<path d="M57.5321 14.9421C57.5321 14.5115 57.58 14.081 57.6278 13.6026C57.6757 13.1243 57.7713 12.6459 57.9148 12.1197C58.0583 11.5935 58.2497 11.1152 58.5367 10.6847C58.8237 10.2063 59.1586 9.77577 59.5891 9.39309C60.0675 9.0104 60.5458 8.72338 61.072 8.53204C61.5982 8.3407 62.1244 8.19719 62.6984 8.10152C63.2246 8.00584 63.7508 7.95801 64.2292 7.95801C64.7075 7.95801 65.1859 7.95801 65.5686 7.95801L69.4911 8.05368L69.3955 12.5024L67.3385 12.4546C66.7645 12.4546 66.1905 12.5024 65.6643 12.6459C65.1381 12.7894 64.7075 13.1243 64.277 13.6505C63.9422 14.1288 63.703 14.655 63.6073 15.2769C63.5116 15.8509 63.4638 16.425 63.416 16.9033L63.2246 25.0833L57.293 24.8441L57.5321 14.9421Z" fill="#3F3F3F"/>
<path d="M70.0195 20.3982H78.7734C78.917 20.3982 79.0126 20.3504 79.1561 20.2547C79.2518 20.2069 79.2996 20.0634 79.2996 19.9199C79.2996 19.8242 79.2518 19.7285 79.204 19.6807C79.1561 19.6329 79.0605 19.585 79.0126 19.5372C78.917 19.4894 78.7256 19.3937 78.4864 19.3459C78.2473 19.2502 77.8167 19.1067 77.1949 18.8675L73.7507 17.6716C73.0331 17.4324 72.3634 17.0976 71.7894 16.7627C71.2154 16.4279 70.737 15.9495 70.45 15.4233C70.2108 14.9928 70.0673 14.5623 69.9716 13.9882C69.876 13.462 69.8281 12.9837 69.8281 12.5532C69.8281 12.027 69.876 11.5008 69.9716 10.9746C70.0673 10.4484 70.2586 9.97002 70.5457 9.49166C70.9762 8.82195 71.5024 8.34359 72.0764 8.15225C72.6983 7.96091 73.4158 7.86523 74.2769 7.86523H84.9921V12.2661H76.2381C76.1425 12.2661 76.0468 12.2661 75.9033 12.2661C75.7598 12.2661 75.6641 12.2661 75.5206 12.314C75.4249 12.314 75.3771 12.3618 75.3293 12.4096C75.2814 12.4575 75.2336 12.5053 75.2336 12.601C75.2336 12.7445 75.2814 12.8402 75.3293 12.8402C75.3771 12.888 75.4728 12.9358 75.5684 12.9837C75.7598 13.0315 75.9033 13.0794 75.9511 13.1272C76.0468 13.175 76.0946 13.175 76.1425 13.2229C76.1903 13.2707 76.286 13.2707 76.3338 13.3185C76.4295 13.3664 76.5252 13.4142 76.7165 13.462L80.7826 14.8971C81.6436 15.1841 82.3611 15.519 82.983 15.8538C83.6049 16.1887 84.0832 16.6192 84.4659 17.2411C84.8486 17.8151 85.0878 18.437 85.1835 19.0588C85.2791 19.6807 85.327 20.1591 85.327 20.5418C85.327 21.1636 85.2313 21.8333 85.0878 22.503C84.8964 23.1727 84.5616 23.7468 83.9876 24.2251C83.557 24.6078 83.1265 24.7992 82.6482 24.8948C82.1698 24.9905 81.7393 25.0383 81.3566 25.0383H69.876V20.3982H70.0195Z" fill="#3F3F3F"/>
<path d="M92.8887 30.4887H86.957V11.1151C86.957 10.6368 87.0049 10.1584 87.1484 9.68005C87.2919 9.24953 87.5789 8.81901 88.0573 8.43632C88.4399 8.1493 88.7748 8.0058 89.1575 7.91013C89.5402 7.86229 89.9229 7.81445 90.3055 7.81445H97.768C98.0071 7.81445 98.342 7.81445 98.7247 7.86229C99.1074 7.91013 99.49 7.95796 99.9206 8.10147C100.351 8.24498 100.782 8.38848 101.212 8.62766C101.643 8.86684 102.025 9.2017 102.408 9.58438C102.791 10.0149 103.126 10.5411 103.365 11.0673C103.604 11.5935 103.747 12.1675 103.891 12.7416C103.987 13.3156 104.082 13.8896 104.082 14.4158C104.13 14.942 104.13 15.4204 104.13 15.8509C104.13 16.2336 104.13 16.6641 104.082 17.2381C104.082 17.8122 104.034 18.3862 103.939 19.0081C103.843 19.6299 103.747 20.2518 103.556 20.8737C103.365 21.4955 103.126 22.0696 102.839 22.5001C102.456 23.0741 102.073 23.5046 101.595 23.7917C101.116 24.1265 100.638 24.3178 100.16 24.5092C99.6336 24.6527 99.1552 24.7484 98.6768 24.7962C98.1985 24.844 97.7201 24.844 97.2896 24.844H92.8887V30.4887ZM95.5197 20.3953C96.1894 20.3953 96.6677 20.2518 97.0026 19.9648C97.3374 19.6778 97.5766 19.3907 97.7201 19.1037C97.8636 18.7689 98.0071 18.3862 98.0071 17.9078C98.055 17.4773 98.055 16.9511 98.055 16.4249C98.055 15.9466 98.055 15.4682 98.0071 15.0855C97.9593 14.655 97.9115 14.3201 97.768 13.9375C97.6244 13.6026 97.4809 13.3156 97.2896 13.1242C97.0983 12.9329 96.8591 12.7894 96.6677 12.6937C96.4764 12.598 96.2372 12.5502 96.0459 12.5024C95.8545 12.5024 95.711 12.4545 95.6153 12.4545H93.5106C93.4627 12.4545 93.367 12.5024 93.2714 12.5502C93.1757 12.598 93.08 12.6459 93.0322 12.6937C92.8887 12.8372 92.8409 13.0286 92.8409 13.2677V20.3953H95.5197Z" fill="#3F3F3F"/>
<path d="M116.997 7.86229C118.002 7.86229 118.815 8.0058 119.485 8.34065C120.154 8.6755 120.633 9.01035 120.968 9.3452C121.302 9.68005 121.542 10.0627 121.781 10.4933C121.972 10.9238 122.163 11.3543 122.259 11.737C122.355 12.1675 122.45 12.598 122.45 12.9807C122.498 13.4113 122.498 13.7939 122.498 14.1288V21.3042C122.498 21.7347 122.45 22.2131 122.355 22.6914C122.259 23.1698 122.068 23.6003 121.685 24.0308C121.302 24.4614 120.872 24.7005 120.394 24.7962C119.915 24.8919 119.437 24.9397 118.958 24.9397H109.487C108.961 24.9397 108.482 24.8919 107.956 24.7962C107.43 24.7005 106.952 24.4614 106.569 24.0308C106.282 23.7438 106.043 23.3611 105.851 22.9784C105.66 22.5479 105.517 22.1652 105.469 21.6869C105.373 21.2563 105.325 20.8258 105.325 20.3953C105.325 19.9648 105.277 19.5821 105.277 19.2472C105.277 18.8646 105.277 18.4819 105.325 18.0992C105.373 17.7165 105.421 17.286 105.517 16.9033C105.612 16.5206 105.756 16.1379 105.947 15.8031C106.138 15.4682 106.378 15.1812 106.712 14.8942C107.143 14.5115 107.621 14.3201 108.1 14.2245C108.578 14.1766 109.056 14.1288 109.535 14.1288H116.567V13.8896C116.567 13.7461 116.567 13.5548 116.519 13.3634C116.471 13.1721 116.423 12.9807 116.28 12.7416C116.04 12.4067 115.753 12.2154 115.419 12.1675C115.084 12.1197 114.749 12.0719 114.462 12.0719H106.378V7.81445H116.997V7.86229ZM112.309 18.2427C112.214 18.2427 112.07 18.2427 111.879 18.2905C111.687 18.3384 111.544 18.3862 111.4 18.5297C111.305 18.6254 111.257 18.7689 111.209 18.9124C111.161 19.0559 111.161 19.1994 111.161 19.3429C111.161 19.4864 111.161 19.5821 111.209 19.7256C111.257 19.8691 111.305 19.9648 111.4 20.0605C111.496 20.1561 111.64 20.2518 111.783 20.2996C111.927 20.3475 112.07 20.3475 112.214 20.3475H115.323C115.466 20.3475 115.658 20.3475 115.801 20.2996C115.945 20.2518 116.088 20.204 116.184 20.1083C116.327 20.0126 116.423 19.8691 116.423 19.7256C116.471 19.5821 116.471 19.4386 116.471 19.2951V18.2427H112.309Z" fill="#3F3F3F"/>
<path d="M124.266 10.9219C124.266 10.587 124.313 10.2521 124.361 9.86946C124.409 9.48677 124.6 9.15192 124.935 8.81707C125.175 8.57789 125.414 8.38655 125.701 8.24304C125.988 8.09953 126.323 8.00386 126.657 7.95602C126.992 7.90819 127.279 7.86035 127.614 7.86035C127.949 7.86035 128.188 7.86035 128.427 7.86035H134.024C134.933 7.86035 135.89 7.95602 136.799 8.09953C137.708 8.24304 138.616 8.67356 139.43 9.3911C139.86 9.77379 140.243 10.2043 140.482 10.6348C140.721 11.0654 140.96 11.4959 141.104 11.9742C141.247 12.4048 141.343 12.8831 141.391 13.3136C141.439 13.7442 141.439 14.1269 141.439 14.5095V25.0335H135.507V16.2795C135.507 15.6576 135.459 15.1314 135.364 14.6531C135.268 14.1747 135.077 13.7442 134.837 13.3615C134.598 12.9788 134.263 12.7396 133.881 12.5483C133.498 12.4048 133.02 12.3091 132.398 12.3091H131.345C131.202 12.3091 131.106 12.3091 130.915 12.3569C130.771 12.4048 130.628 12.4526 130.484 12.5483C130.341 12.6918 130.245 12.8353 130.245 13.0266C130.245 13.1701 130.245 13.3615 130.245 13.505V24.9378H124.313V10.9219H124.266Z" fill="#3F3F3F"/>
<path d="M139.91 26.373C140.771 26.373 141.441 26.373 141.919 26.2295C142.398 26.1338 142.828 25.8946 143.259 25.5598C143.641 25.2249 143.928 24.8423 144.168 24.3639C144.359 23.8855 144.502 23.2158 144.502 22.307V7.86051H150.434V23.6464C150.434 24.029 150.434 24.4596 150.386 24.9379C150.338 25.4163 150.243 25.9425 150.099 26.4687C149.956 26.9949 149.717 27.4732 149.382 27.9516C149.047 28.43 148.664 28.8605 148.138 29.2432C147.373 29.7694 146.368 30.152 145.076 30.2956C143.785 30.4391 142.111 30.5347 139.958 30.4869V26.373H139.91ZM144.502 6.13841V2.35938H150.434V6.13841H144.502Z" fill="#3F3F3F"/>
<path d="M158.416 24.9914C157.794 24.9914 157.22 24.9914 156.694 24.9436C156.168 24.9436 155.641 24.8479 155.163 24.7044C154.685 24.5609 154.254 24.3217 153.824 24.0347C153.393 23.7477 153.058 23.3171 152.723 22.7431C152.389 22.1212 152.149 21.308 152.054 20.3513C151.958 19.3946 151.91 18.1509 151.91 16.5723C151.91 15.8069 151.91 15.0415 151.91 14.324C151.91 13.6064 151.958 12.9367 152.006 12.3149C152.102 11.693 152.197 11.119 152.389 10.6406C152.58 10.1144 152.867 9.6839 153.202 9.30121C153.584 8.87069 154.015 8.58367 154.589 8.34449C155.163 8.10531 155.737 7.9618 156.407 7.86613C157.076 7.77046 157.794 7.67479 158.512 7.67479C159.229 7.67479 159.994 7.62695 160.76 7.62695C162.386 7.62695 163.773 7.67479 164.826 7.77046C165.878 7.86613 166.739 8.20098 167.409 8.77502C167.792 9.10987 168.079 9.49255 168.318 9.97091C168.557 10.4493 168.748 10.9276 168.844 11.4538C168.988 11.98 169.035 12.5062 169.083 13.0324C169.131 13.5586 169.131 14.037 169.131 14.5153C169.131 15.0894 169.083 15.6634 168.988 16.1896C168.892 16.7636 168.605 17.242 168.174 17.6247C167.935 17.8638 167.648 18.0073 167.409 18.0552C167.17 18.103 166.883 18.103 166.596 18.103H157.842C157.842 18.3422 157.842 18.5814 157.89 18.8684C157.937 19.1076 158.033 19.3468 158.129 19.5381C158.368 19.9686 158.751 20.2078 159.277 20.2556C159.755 20.3035 160.281 20.3513 160.808 20.3513H168.605V24.9436H158.416V24.9914ZM162.243 14.1805C162.673 14.1805 162.912 14.0848 163.056 13.8456C163.152 13.6543 163.247 13.4151 163.247 13.2716C163.247 13.0324 163.152 12.7932 163.056 12.6019C162.912 12.4105 162.625 12.2192 162.195 12.1235C161.956 12.0757 161.669 12.0279 161.334 12.0279C160.999 12.0279 160.76 11.98 160.616 11.98C160.281 11.98 159.899 11.98 159.516 12.0279C159.133 12.0757 158.799 12.1235 158.559 12.267C158.272 12.4584 158.081 12.6976 157.985 13.0324C157.89 13.3673 157.89 13.75 157.937 14.1805H162.243Z" fill="#3F3F3F"/>
<path d="M169.468 3.13351C169.468 4.67729 168.288 5.85783 166.744 5.85783C165.2 5.85783 164.02 4.67729 164.02 3.13351C164.02 1.58973 165.2 0.5 166.835 0.5C168.288 0.5 169.468 1.68054 169.468 3.13351ZM164.655 3.13351C164.655 4.31405 165.563 5.31297 166.744 5.31297C167.924 5.31297 168.742 4.40486 168.742 3.22432C168.742 2.04378 167.834 1.04486 166.653 1.04486C165.563 1.04486 164.655 2.04378 164.655 3.13351ZM166.29 4.58648H165.654V1.86216C165.927 1.86216 166.199 1.77135 166.653 1.77135C167.198 1.77135 167.38 1.86216 167.561 1.95297C167.743 2.04378 167.834 2.2254 167.834 2.49784C167.834 2.86108 167.561 3.0427 167.289 3.13351C167.561 3.22432 167.652 3.40594 167.743 3.76919C167.834 4.13243 167.924 4.31405 167.924 4.40486H167.289C167.198 4.31405 167.198 4.04162 167.107 3.76919C167.016 3.49675 166.925 3.40594 166.562 3.40594H166.29V4.58648ZM166.29 3.0427H166.562C166.925 3.0427 167.198 2.95189 167.198 2.67946C167.198 2.40703 167.016 2.31621 166.653 2.31621C166.471 2.31621 166.381 2.31621 166.29 2.31621V3.0427Z" fill="#3F3F3F"/>
</svg>
