<svg width="68" height="30" viewBox="0 0 68 30" fill="none" xmlns="http://www.w3.org/2000/svg">
<path fill-rule="evenodd" clip-rule="evenodd" d="M0.332031 26.6363L0.577951 26.3529L0.82387 26.0596L1.06979 25.7568L1.31571 25.4446L1.56163 25.1235L1.80755 24.7935L2.05347 24.4551L2.29939 24.1086L2.5453 23.7541L2.79122 23.3921L3.03714 23.0228L3.28306 22.6466L3.52898 22.2638L3.7749 21.8746L4.02082 21.4796L4.26674 21.0789L4.51266 20.673L4.75858 20.2621L5.0045 19.8467L5.25042 19.4272L5.49634 19.0037L5.74225 18.5769L5.98817 18.1469L6.23409 17.7142L6.48001 17.2792L6.72593 16.8422L6.97185 16.4036L7.21777 15.9637L7.46369 15.5231L7.70961 15.082L7.95553 14.6408L8.20145 14.2L8.44737 13.7598L8.69329 13.3207L8.93921 12.883L9.18512 12.4472L9.43104 12.0136L9.67696 11.5826L9.92288 11.1545L10.1688 10.7298L10.4147 10.3088L10.6606 9.89176L10.9066 9.47919L11.1525 9.0714L11.3984 8.66873L11.6443 8.27154L11.8902 7.88017L12.1362 7.49496L12.3821 7.11624L12.628 6.74434L12.8739 6.37958L13.1198 6.02227L13.3658 5.67274L13.6117 5.33127L13.8576 4.99816L14.1035 4.67371L14.3494 4.35818L14.5953 4.05187L14.8413 3.75502L15.0872 3.4679L15.3331 3.19075L15.579 2.92382L15.8249 2.66734L16.0709 2.42152L16.3168 2.18659L16.5627 1.96273L16.8086 1.75016L17.0545 1.54904L17.3005 1.35956L17.5464 1.18188L17.7923 1.01615L18.0382 0.862517L18.2841 0.721113L18.5301 0.59206L18.776 0.47547L19.0219 0.371443L19.2678 0.280069L19.5137 0.201429L19.7597 0.135588L20.0056 0.0826058L20.2515 0.0425266L20.4974 0.0153854L20.7433 0.00120581L20.9892 0L21.2352 0.011769L21.4811 0.0365027L21.727 0.0741797L21.9729 0.124767L22.2188 0.188222L22.4648 0.264488L22.7107 0.353501L22.9566 0.455183L23.2025 0.569446L23.4484 0.696191L23.6944 0.835309L23.9403 0.986679L24.1862 1.15017L24.4321 1.32564L24.678 1.51294L24.924 1.71191L25.1699 1.92237L25.4158 2.14414L25.6617 2.37703L25.9076 2.62084L26.1536 2.87536L26.3995 3.14037L26.6454 3.41563L26.8913 3.70092L27.1372 3.99597L27.3832 4.30055L27.6291 4.61438L27.875 4.9372L28.1209 5.26872L28.3668 5.60866L28.6127 5.95672L28.8587 6.3126L29.1046 6.676L29.3505 7.04659L29.5964 7.42407L29.8423 7.8081L30.0883 8.19835L30.3342 8.59449L30.5801 8.99616L30.826 9.40303L31.0719 9.81474L31.3179 10.2309L31.5638 10.6513L31.8097 11.0753L32.0556 11.5028L32.3015 11.9333L32.5475 12.3665L32.7934 12.8019L33.0393 13.2392L33.2852 13.6781L33.5311 14.1181L33.7771 14.5589L34.023 15L34.2689 15.4411L34.5148 15.8819L34.7607 16.3219L35.0066 16.7608L35.2526 17.1981L35.4985 17.6335L35.7444 18.0667L35.9903 18.4972L36.2362 18.9247L36.4822 19.3487L36.7281 19.7691L36.974 20.1853L37.2199 20.597L37.4658 21.0038L37.7118 21.4055L37.9577 21.8016L38.2036 22.1919L38.4495 22.5759L38.6954 22.9534L38.9414 23.324L39.1873 23.6874L39.4332 24.0433L39.6791 24.3913L39.925 24.7313L40.171 25.0628L40.4169 25.3856L40.6628 25.6994L40.9087 26.004L41.1546 26.2991L41.4005 26.5844L41.6465 26.8596L41.8924 27.1246L42.1383 27.3792L42.3842 27.623L42.6301 27.8559L42.8761 28.0776L43.122 28.2881L43.3679 28.4871L43.6138 28.6744L43.8597 28.8498L44.1057 29.0133L44.3516 29.1647L44.5975 29.3038L44.8434 29.4306L45.0893 29.5448L45.3353 29.6465L45.5812 29.7355L45.8271 29.8118L46.073 29.8752L46.3189 29.9258L46.5648 29.9635L46.8108 29.9882L47.0567 30L47.3026 29.9988L47.5485 29.9846L47.7944 29.9575L48.0404 29.9174L48.2863 29.8644L48.5322 29.7986L48.7781 29.7199L49.024 29.6286L49.27 29.5245L49.5159 29.4079L49.7618 29.2789L50.0077 29.1375L50.2536 28.9838L50.4996 28.8181L50.7455 28.6404L50.9914 28.451L51.2373 28.2498L51.4832 28.0373L51.7292 27.8134L51.9751 27.5785L52.221 27.3327L52.4669 27.0762L52.7128 26.8092L52.9588 26.5321L53.2047 26.245L53.4506 25.9481L53.6965 25.6418L53.9424 25.3263L54.1883 25.0018L54.4343 24.6687L54.6802 24.3273L54.9261 23.9777L55.172 23.6204L55.4179 23.2557L55.6639 22.8838L55.9098 22.505L56.1557 22.1198L56.4016 21.7285L56.6475 21.3313L56.8935 20.9286L57.1394 20.5208L57.3853 20.1082L57.6312 19.6912L57.8771 19.2702L58.1231 18.8455L58.369 18.4174L58.6149 17.9864L58.8608 17.5528L59.1067 17.117L59.3527 16.6793L59.5986 16.2402L59.8445 15.8L60.0904 15.3592L60.3363 14.918L60.5822 14.4769L60.8282 14.0362L61.0741 13.5964L61.32 13.1578L61.5659 12.7208L61.8118 12.2858L62.0578 11.8531L62.3037 11.4231L62.5496 10.9963L62.7955 10.5728L63.0414 10.1533L63.2874 9.73787L63.5333 9.32704L63.7792 8.92111L64.0251 8.52044L64.271 8.12537L64.517 7.73625L64.7629 7.35341L65.0088 6.97719L65.2547 6.6079L65.5006 6.24588L65.7466 5.89143L65.9925 5.54485L66.2384 5.20646L66.4843 4.87654L66.7302 4.55537L66.9762 4.24324L67.2221 3.94041L67.468 3.64715" fill="#393939"/>
</svg>
