<svg width="50" height="30" viewBox="0 0 50 30" fill="none" xmlns="http://www.w3.org/2000/svg">
<path fill-rule="evenodd" clip-rule="evenodd" d="M0 18.1505L0.236967 16.806L0.473934 15.4465L0.7109 14.0833L0.947867 12.7278L1.18483 11.391L1.4218 10.0839L1.65877 8.81754L1.89573 7.60219L2.1327 6.44794L2.36967 5.36432L2.60664 4.36028L2.8436 3.44411L3.08057 2.62337L3.31754 1.90485L3.5545 1.29449L3.79147 0.797309L4.02844 0.417429L4.2654 0.157982L4.50237 0.0211129L4.73934 0.00795064L4.9763 0.118604L5.21327 0.35216L5.45024 0.706689L5.6872 1.17926L5.92417 1.76598L6.16114 2.46199L6.3981 3.26155L6.63507 4.15806L6.87204 5.14411L7.109 6.21156L7.34597 7.35158L7.58294 8.55478L7.8199 9.8112L8.05687 11.1105L8.29384 12.4419L8.53081 13.7944L8.76777 15.1569L9.00474 16.5181L9.24171 17.8667L9.47867 19.1917L9.71564 20.4821L9.95261 21.7271L10.1896 22.9167L10.4265 24.0408L10.6635 25.0903L10.9005 26.0564L11.1374 26.9312L11.3744 27.7075L11.6114 28.3789L11.8483 28.9397L12.0853 29.3855L12.3223 29.7124L12.5592 29.9178L12.7962 30L13.0332 29.9583L13.2701 29.7931L13.5071 29.5057L13.7441 29.0986L13.981 28.5749L14.218 27.9392L14.455 27.1966L14.6919 26.3533L14.9289 25.4162L15.1659 24.3931L15.4028 23.2924L15.6398 22.1232L15.8768 20.8952L16.1137 19.6186L16.3507 18.3037L16.5877 16.9616L16.8246 15.6033L17.0616 14.24L17.2986 12.883L17.5355 11.5434L17.7725 10.2324L18.0095 8.96082L18.2464 7.73908L18.4834 6.5773L18.7204 5.48509L18.9573 4.47146L19.1943 3.54478L19.4313 2.71271L19.6682 1.98211L19.9052 1.35903L20.1422 0.848602L20.3791 0.45505L20.6161 0.181621L20.8531 0.0305735L21.09 0.00315522L21.327 0.0995925L21.564 0.319089L21.8009 0.659832L22.0379 1.11901L22.2749 1.69282L22.5118 2.37654L22.7488 3.16451L22.9858 4.05022L23.2227 5.02637L23.4597 6.08489L23.6967 7.21704L23.9336 8.41346L24.1706 9.66428L24.4076 10.9592L24.6445 12.2874L24.8815 13.6381L25.1185 15L25.3554 16.3619L25.5924 17.7126L25.8294 19.0408L26.0664 20.3357L26.3033 21.5865L26.5403 22.783L26.7773 23.9151L27.0142 24.9736L27.2512 25.9498L27.4882 26.8355L27.7251 27.6235L27.9621 28.3072L28.1991 28.881L28.436 29.3402L28.673 29.6809L28.91 29.9004L29.1469 29.9968L29.3839 29.9694L29.6209 29.8184L29.8578 29.545L30.0948 29.1514L30.3318 28.641L30.5687 28.0179L30.8057 27.2873L31.0427 26.4552L31.2796 25.5285L31.5166 24.5149L31.7536 23.4227L31.9905 22.2609L32.2275 21.0392L32.4645 19.7676L32.7014 18.4566L32.9384 17.117L33.1754 15.76L33.4123 14.3967L33.6493 13.0384L33.8863 11.6963L34.1232 10.3814L34.3602 9.10476L34.5972 7.87676L34.8341 6.70759L35.0711 5.6069L35.3081 4.58379L35.545 3.6467L35.782 2.80338L36.019 2.06079L36.2559 1.42506L36.4929 0.901443L36.7299 0.494262L36.9668 0.20688L37.2038 0.0416712L37.4408 0L37.6777 0.0822104L37.9147 0.287623L38.1517 0.614543L38.3886 1.06027L38.6256 1.62112L38.8626 2.29246L39.0995 3.06875L39.3365 3.94358L39.5735 4.90973L39.8104 5.9592L40.0474 7.08334L40.2844 8.27287L40.5213 9.51795L40.7583 10.8083L40.9953 12.1333L41.2322 13.4819L41.4692 14.8431L41.7062 16.2056L41.9431 17.5581L42.1801 18.8895L42.4171 20.1888L42.654 21.4452L42.891 22.6484L43.128 23.7884L43.3649 24.8559L43.6019 25.8419L43.8389 26.7384L44.0758 27.538L44.3128 28.234L44.5498 28.8207L44.7867 29.2933L45.0237 29.6478L45.2607 29.8814L45.4976 29.992L45.7346 29.9789L45.9716 29.842L46.2085 29.5826L46.4455 29.2027L46.6825 28.7055L46.9194 28.0951L47.1564 27.3766L47.3934 26.5559L47.6303 25.6397L47.8673 24.6357L48.1043 23.5521L48.3412 22.3978L48.5782 21.1825L48.8152 19.9161L49.0521 18.609L49.2891 17.2722L49.5261 15.9167L49.763 14.5535L50 13.194" fill="#393939"/>
</svg>
